%YAML 1.1
%TAG !u! tag:unity3d.com,2011:
--- !u!114 &11400000
MonoBehaviour:
  m_ObjectHideFlags: 0
  m_CorrespondingSourceObject: {fileID: 0}
  m_PrefabInstance: {fileID: 0}
  m_PrefabAsset: {fileID: 0}
  m_GameObject: {fileID: 0}
  m_Enabled: 1
  m_EditorHideFlags: 0
  m_Script: {fileID: 11500000, guid: 125b9f6e6906d6e4897a443b3c12729c, type: 3}
  m_Name: MainUI
  m_EditorClassIdentifier: 
  material: {fileID: 2100000, guid: fc036d8fce3ff4be59982ad6d4e70652, type: 2}
  mSprites:
  - name: Baloo_32pt-export
    x: 582
    y: 666
    width: 358
    height: 358
    borderLeft: 0
    borderRight: 0
    borderTop: 0
    borderBottom: 0
    paddingLeft: 0
    paddingRight: 1
    paddingTop: 0
    paddingBottom: 1
  - name: btn_claim
    x: 1038
    y: 427
    width: 336
    height: 181
    borderLeft: 0
    borderRight: 0
    borderTop: 0
    borderBottom: 0
    paddingLeft: 7
    paddingRight: 7
    paddingTop: 6
    paddingBottom: 7
  - name: btn_restart
    x: 1772
    y: 593
    width: 88
    height: 88
    borderLeft: 0
    borderRight: 0
    borderTop: 0
    borderBottom: 0
    paddingLeft: 0
    paddingRight: 0
    paddingTop: 0
    paddingBottom: 0
  - name: btn_restart_big
    x: 1534
    y: 639
    width: 186
    height: 178
    borderLeft: 0
    borderRight: 0
    borderTop: 0
    borderBottom: 0
    paddingLeft: 0
    paddingRight: 0
    paddingTop: 0
    paddingBottom: 0
  - name: health_bar_background
    x: 1695
    y: 434
    width: 30
    height: 34
    borderLeft: 10
    borderRight: 10
    borderTop: 0
    borderBottom: 0
    paddingLeft: 1
    paddingRight: 1
    paddingTop: 1
    paddingBottom: 1
  - name: health_bar_frame
    x: 1728
    y: 645
    width: 32
    height: 36
    borderLeft: 10
    borderRight: 10
    borderTop: 0
    borderBottom: 0
    paddingLeft: 0
    paddingRight: 0
    paddingTop: 0
    paddingBottom: 0
  - name: health_bar_green
    x: 546
    y: 129
    width: 28
    height: 28
    borderLeft: 8
    borderRight: 8
    borderTop: 0
    borderBottom: 0
    paddingLeft: 0
    paddingRight: 0
    paddingTop: 0
    paddingBottom: 0
  - name: health_bar_line
    x: 1864
    y: 780
    width: 90
    height: 26
    borderLeft: 0
    borderRight: 0
    borderTop: 0
    borderBottom: 0
    paddingLeft: 1
    paddingRight: 1
    paddingTop: 2
    paddingBottom: 2
  - name: health_bar_red
    x: 2004
    y: 935
    width: 28
    height: 28
    borderLeft: 0
    borderRight: 0
    borderTop: 0
    borderBottom: 0
    paddingLeft: 0
    paddingRight: 0
    paddingTop: 0
    paddingBottom: 0
  - name: health_bar_yellow
    x: 1968
    y: 935
    width: 28
    height: 28
    borderLeft: 8
    borderRight: 8
    borderTop: 0
    borderBottom: 0
    paddingLeft: 0
    paddingRight: 0
    paddingTop: 0
    paddingBottom: 0
  - name: lbl_completed
    x: 878
    y: 260
    width: 593
    height: 133
    borderLeft: 0
    borderRight: 0
    borderTop: 0
    borderBottom: 0
    paddingLeft: 0
    paddingRight: 1
    paddingTop: 0
    paddingBottom: 1
  - name: lbl_game_over
    x: 582
    y: 401
    width: 448
    height: 257
    borderLeft: 0
    borderRight: 0
    borderTop: 0
    borderBottom: 0
    paddingLeft: 9
    paddingRight: 11
    paddingTop: 11
    paddingBottom: 10
  - name: popup_notify_background
    x: 1730
    y: 904
    width: 120
    height: 120
    borderLeft: 54
    borderRight: 54
    borderTop: 54
    borderBottom: 54
    paddingLeft: 0
    paddingRight: 0
    paddingTop: 0
    paddingBottom: 0
  - name: preloader_dot
    x: 1322
    y: 728
    width: 32
    height: 16
    borderLeft: 0
    borderRight: 0
    borderTop: 0
    borderBottom: 0
    paddingLeft: 0
    paddingRight: 0
    paddingTop: 0
    paddingBottom: 0
  - name: spr_coins
    x: 1382
    y: 413
    width: 206
    height: 195
    borderLeft: 0
    borderRight: 0
    borderTop: 0
    borderBottom: 0
    paddingLeft: 0
    paddingRight: 0
    paddingTop: 1
    paddingBottom: 0
  - name: spr_coins_background
    x: 1596
    y: 418
    width: 91
    height: 50
    borderLeft: 26
    borderRight: 26
    borderTop: 0
    borderBottom: 0
    paddingLeft: 0
    paddingRight: 0
    paddingTop: 0
    paddingBottom: 0
  - name: spr_cross_part
    x: 1322
    y: 752
    width: 34
    height: 16
    borderLeft: 10
    borderRight: 10
    borderTop: 0
    borderBottom: 0
    paddingLeft: 0
    paddingRight: 0
    paddingTop: 0
    paddingBottom: 0
  - name: spr_flying_coin
    x: 1858
    y: 917
    width: 102
    height: 107
    borderLeft: 0
    borderRight: 0
    borderTop: 0
    borderBottom: 0
    paddingLeft: 0
    paddingRight: 0
    paddingTop: 1
    paddingBottom: 0
  - name: spr_icon
    x: 948
    y: 684
    width: 78
    height: 84
    borderLeft: 0
    borderRight: 0
    borderTop: 0
    borderBottom: 0
    paddingLeft: 10
    paddingRight: 0
    paddingTop: 8
    paddingBottom: 0
  - name: spr_icon_small
    x: 1968
    y: 971
    width: 52
    height: 53
    borderLeft: 0
    borderRight: 0
    borderTop: 0
    borderBottom: 0
    paddingLeft: 12
    paddingRight: 3
    paddingTop: 20
    paddingBottom: 0
  - name: spr_level_background
    x: 1730
    y: 832
    width: 192
    height: 64
    borderLeft: 32
    borderRight: 32
    borderTop: 0
    borderBottom: 0
    paddingLeft: 0
    paddingRight: 0
    paddingTop: 0
    paddingBottom: 0
  - name: spr_level_progress
    x: 0
    y: 89
    width: 538
    height: 68
    borderLeft: 0
    borderRight: 0
    borderTop: 0
    borderBottom: 0
    paddingLeft: 0
    paddingRight: 0
    paddingTop: 0
    paddingBottom: 0
  - name: spr_popup_background
    x: 0
    y: 165
    width: 574
    height: 859
    borderLeft: 0
    borderRight: 0
    borderTop: 0
    borderBottom: 0
    paddingLeft: 11
    paddingRight: 11
    paddingTop: 8
    paddingBottom: 11
  - name: spr_progress_roller
    x: 546
    y: 87
    width: 22
    height: 34
    borderLeft: 0
    borderRight: 0
    borderTop: 0
    borderBottom: 0
    paddingLeft: 1
    paddingRight: 1
    paddingTop: 1
    paddingBottom: 1
  - name: spr_reward_background
    x: 1479
    y: 303
    width: 256
    height: 102
    borderLeft: 70
    borderRight: 70
    borderTop: 0
    borderBottom: 0
    paddingLeft: 13
    paddingRight: 13
    paddingTop: 8
    paddingBottom: 12
  - name: spr_skull
    x: 1534
    y: 825
    width: 188
    height: 199
    borderLeft: 0
    borderRight: 0
    borderTop: 0
    borderBottom: 0
    paddingLeft: 0
    paddingRight: 0
    paddingTop: 1
    paddingBottom: 0
  - name: stick
    x: 1728
    y: 689
    width: 128
    height: 128
    borderLeft: 0
    borderRight: 0
    borderTop: 0
    borderBottom: 0
    paddingLeft: 0
    paddingRight: 0
    paddingTop: 0
    paddingBottom: 0
  - name: stick_background
    x: 582
    y: 105
    width: 288
    height: 288
    borderLeft: 0
    borderRight: 0
    borderTop: 0
    borderBottom: 0
    paddingLeft: 0
    paddingRight: 0
    paddingTop: 0
    paddingBottom: 0
  - name: tutorial_fade
    x: 1370
    y: 616
    width: 156
    height: 408
    borderLeft: 0
    borderRight: 0
    borderTop: 0
    borderBottom: 0
    paddingLeft: 0
    paddingRight: 0
    paddingTop: 0
    paddingBottom: 0
  - name: tutorial_hand
    x: 1596
    y: 476
    width: 168
    height: 155
    borderLeft: 0
    borderRight: 0
    borderTop: 0
    borderBottom: 0
    paddingLeft: 1
    paddingRight: 1
    paddingTop: 1
    paddingBottom: 2
  - name: tutorial_infinity_background
    x: 1038
    y: 643
    width: 276
    height: 125
    borderLeft: 0
    borderRight: 0
    borderTop: 0
    borderBottom: 0
    paddingLeft: 0
    paddingRight: 0
    paddingTop: 0
    paddingBottom: 1
  - name: tutorial_infinity_hand
    x: 1930
    y: 814
    width: 104
    height: 95
    borderLeft: 0
    borderRight: 0
    borderTop: 0
    borderBottom: 0
    paddingLeft: 1
    paddingRight: 1
    paddingTop: 1
    paddingBottom: 0
  - name: tutorial_wave
    x: 1743
    y: 371
    width: 97
    height: 97
    borderLeft: 0
    borderRight: 0
    borderTop: 0
    borderBottom: 0
    paddingLeft: 1
    paddingRight: 0
    paddingTop: 0
    paddingBottom: 1
  - name: universal_bg
    x: 948
    y: 776
    width: 414
    height: 248
    borderLeft: 50
    borderRight: 50
    borderTop: 50
    borderBottom: 50
    paddingLeft: 0
    paddingRight: 0
    paddingTop: 0
    paddingBottom: 0
  mPixelSize: 1
  mReplacement: {fileID: 0}
