%YAML 1.1
%TAG !u! tag:unity3d.com,2011:
--- !u!114 &11400000
MonoBehaviour:
  m_ObjectHideFlags: 0
  m_CorrespondingSourceObject: {fileID: 0}
  m_PrefabInstance: {fileID: 0}
  m_PrefabAsset: {fileID: 0}
  m_GameObject: {fileID: 0}
  m_Enabled: 1
  m_EditorHideFlags: 0
  m_Script: {fileID: 11500000, guid: d1f8a83de9012442bbf9807ce8ca1b38, type: 3}
  m_Name: LevelsPreset
  m_EditorClassIdentifier: 
  levels:
  - sceneName: Level01
    isAllowForRandomSelection: 1
  - sceneName: Level02
    isAllowForRandomSelection: 1
  - sceneName: Level03
    isAllowForRandomSelection: 1
