%YAML 1.1
%TAG !u! tag:unity3d.com,2011:
--- !u!29 &1
OcclusionCullingSettings:
  m_ObjectHideFlags: 0
  serializedVersion: 2
  m_OcclusionBakeSettings:
    smallestOccluder: 5
    smallestHole: 0.25
    backfaceThreshold: 100
  m_SceneGUID: 00000000000000000000000000000000
  m_OcclusionCullingData: {fileID: 0}
--- !u!104 &2
RenderSettings:
  m_ObjectHideFlags: 0
  serializedVersion: 9
  m_Fog: 0
  m_FogColor: {r: 0.5, g: 0.5, b: 0.5, a: 1}
  m_FogMode: 3
  m_FogDensity: 0.01
  m_LinearFogStart: 0
  m_LinearFogEnd: 300
  m_AmbientSkyColor: {r: 0.212, g: 0.227, b: 0.259, a: 1}
  m_AmbientEquatorColor: {r: 0.114, g: 0.125, b: 0.133, a: 1}
  m_AmbientGroundColor: {r: 0.047, g: 0.043, b: 0.035, a: 1}
  m_AmbientIntensity: 1
  m_AmbientMode: 0
  m_SubtractiveShadowColor: {r: 0.42, g: 0.478, b: 0.627, a: 1}
  m_SkyboxMaterial: {fileID: 10304, guid: 0000000000000000f000000000000000, type: 0}
  m_HaloStrength: 0.5
  m_FlareStrength: 1
  m_FlareFadeSpeed: 3
  m_HaloTexture: {fileID: 0}
  m_SpotCookie: {fileID: 10001, guid: 0000000000000000e000000000000000, type: 0}
  m_DefaultReflectionMode: 0
  m_DefaultReflectionResolution: 128
  m_ReflectionBounces: 1
  m_ReflectionIntensity: 1
  m_CustomReflection: {fileID: 0}
  m_Sun: {fileID: 170076734}
  m_IndirectSpecularColor: {r: 0.44657898, g: 0.4964133, b: 0.5748178, a: 1}
  m_UseRadianceAmbientProbe: 0
--- !u!157 &3
LightmapSettings:
  m_ObjectHideFlags: 0
  serializedVersion: 11
  m_GIWorkflowMode: 0
  m_GISettings:
    serializedVersion: 2
    m_BounceScale: 1
    m_IndirectOutputScale: 1
    m_AlbedoBoost: 1
    m_EnvironmentLightingMode: 0
    m_EnableBakedLightmaps: 1
    m_EnableRealtimeLightmaps: 0
  m_LightmapEditorSettings:
    serializedVersion: 10
    m_Resolution: 2
    m_BakeResolution: 10
    m_AtlasSize: 512
    m_AO: 0
    m_AOMaxDistance: 1
    m_CompAOExponent: 1
    m_CompAOExponentDirect: 0
    m_Padding: 2
    m_LightmapParameters: {fileID: 0}
    m_LightmapsBakeMode: 1
    m_TextureCompression: 1
    m_FinalGather: 0
    m_FinalGatherFiltering: 1
    m_FinalGatherRayCount: 256
    m_ReflectionCompression: 2
    m_MixedBakeMode: 2
    m_BakeBackend: 1
    m_PVRSampling: 1
    m_PVRDirectSampleCount: 32
    m_PVRSampleCount: 256
    m_PVRBounces: 2
    m_PVRFilterTypeDirect: 0
    m_PVRFilterTypeIndirect: 0
    m_PVRFilterTypeAO: 0
    m_PVRFilteringMode: 1
    m_PVRCulling: 1
    m_PVRFilteringGaussRadiusDirect: 1
    m_PVRFilteringGaussRadiusIndirect: 5
    m_PVRFilteringGaussRadiusAO: 2
    m_PVRFilteringAtrousPositionSigmaDirect: 0.5
    m_PVRFilteringAtrousPositionSigmaIndirect: 2
    m_PVRFilteringAtrousPositionSigmaAO: 1
    m_ShowResolutionOverlay: 1
  m_LightingDataAsset: {fileID: 0}
  m_UseShadowmask: 1
--- !u!196 &4
NavMeshSettings:
  serializedVersion: 2
  m_ObjectHideFlags: 0
  m_BuildSettings:
    serializedVersion: 2
    agentTypeID: 0
    agentRadius: 0.5
    agentHeight: 2
    agentSlope: 45
    agentClimb: 0.4
    ledgeDropHeight: 0
    maxJumpAcrossDistance: 0
    minRegionArea: 2
    manualCellSize: 0
    cellSize: 0.16666667
    manualTileSize: 0
    tileSize: 256
    accuratePlacement: 0
    debug:
      m_Flags: 0
  m_NavMeshData: {fileID: 0}
--- !u!1 &170076733
GameObject:
  m_ObjectHideFlags: 0
  m_CorrespondingSourceObject: {fileID: 0}
  m_PrefabInstance: {fileID: 0}
  m_PrefabAsset: {fileID: 0}
  serializedVersion: 6
  m_Component:
  - component: {fileID: 170076735}
  - component: {fileID: 170076734}
  m_Layer: 0
  m_Name: Directional Light
  m_TagString: Untagged
  m_Icon: {fileID: 0}
  m_NavMeshLayer: 0
  m_StaticEditorFlags: 0
  m_IsActive: 1
--- !u!108 &170076734
Light:
  m_ObjectHideFlags: 0
  m_CorrespondingSourceObject: {fileID: 0}
  m_PrefabInstance: {fileID: 0}
  m_PrefabAsset: {fileID: 0}
  m_GameObject: {fileID: 170076733}
  m_Enabled: 1
  serializedVersion: 8
  m_Type: 1
  m_Color: {r: 1, g: 0.95686275, b: 0.8392157, a: 1}
  m_Intensity: 1
  m_Range: 10
  m_SpotAngle: 30
  m_CookieSize: 10
  m_Shadows:
    m_Type: 2
    m_Resolution: -1
    m_CustomResolution: -1
    m_Strength: 1
    m_Bias: 0.05
    m_NormalBias: 0.4
    m_NearPlane: 0.2
  m_Cookie: {fileID: 0}
  m_DrawHalo: 0
  m_Flare: {fileID: 0}
  m_RenderMode: 0
  m_CullingMask:
    serializedVersion: 2
    m_Bits: 4294967295
  m_Lightmapping: 1
  m_LightShadowCasterMode: 0
  m_AreaSize: {x: 1, y: 1}
  m_BounceIntensity: 1
  m_ColorTemperature: 6570
  m_UseColorTemperature: 0
  m_ShadowRadius: 0
  m_ShadowAngle: 0
--- !u!4 &170076735
Transform:
  m_ObjectHideFlags: 0
  m_CorrespondingSourceObject: {fileID: 0}
  m_PrefabInstance: {fileID: 0}
  m_PrefabAsset: {fileID: 0}
  m_GameObject: {fileID: 170076733}
  m_LocalRotation: {x: 0.40821788, y: -0.23456968, z: 0.10938163, w: 0.8754261}
  m_LocalPosition: {x: 0, y: 3, z: 0}
  m_LocalScale: {x: 1, y: 1, z: 1}
  m_Children: []
  m_Father: {fileID: 0}
  m_RootOrder: 1
  m_LocalEulerAnglesHint: {x: 50, y: -30, z: 0}
--- !u!1001 &244061727
PrefabInstance:
  m_ObjectHideFlags: 0
  serializedVersion: 2
  m_Modification:
    m_TransformParent: {fileID: 0}
    m_Modifications:
    - target: {fileID: 1458258661, guid: 7f4ad8278d281a14987420738e3a620d, type: 3}
      propertyPath: brushExplanationDistance
      value: 1
      objectReference: {fileID: 0}
    - target: {fileID: 1458258661, guid: 7f4ad8278d281a14987420738e3a620d, type: 3}
      propertyPath: m_Enabled
      value: 1
      objectReference: {fileID: 0}
    - target: {fileID: 1458258661, guid: 7f4ad8278d281a14987420738e3a620d, type: 3}
      propertyPath: enableSpeedController
      value: 0
      objectReference: {fileID: 0}
    - target: {fileID: 1458258661, guid: 7f4ad8278d281a14987420738e3a620d, type: 3}
      propertyPath: targetHitDistance
      value: 0.1
      objectReference: {fileID: 0}
    - target: {fileID: 1458258661, guid: 7f4ad8278d281a14987420738e3a620d, type: 3}
      propertyPath: speed
      value: 8
      objectReference: {fileID: 0}
    - target: {fileID: 4935567236902983261, guid: 7f4ad8278d281a14987420738e3a620d,
        type: 3}
      propertyPath: m_Name
      value: Car_Blue
      objectReference: {fileID: 0}
    - target: {fileID: 4935567236903406205, guid: 7f4ad8278d281a14987420738e3a620d,
        type: 3}
      propertyPath: m_LocalPosition.x
      value: -3.88
      objectReference: {fileID: 0}
    - target: {fileID: 4935567236903406205, guid: 7f4ad8278d281a14987420738e3a620d,
        type: 3}
      propertyPath: m_LocalPosition.y
      value: 0.25
      objectReference: {fileID: 0}
    - target: {fileID: 4935567236903406205, guid: 7f4ad8278d281a14987420738e3a620d,
        type: 3}
      propertyPath: m_LocalPosition.z
      value: 7.14
      objectReference: {fileID: 0}
    - target: {fileID: 4935567236903406205, guid: 7f4ad8278d281a14987420738e3a620d,
        type: 3}
      propertyPath: m_LocalRotation.x
      value: 0
      objectReference: {fileID: 0}
    - target: {fileID: 4935567236903406205, guid: 7f4ad8278d281a14987420738e3a620d,
        type: 3}
      propertyPath: m_LocalRotation.y
      value: 1
      objectReference: {fileID: 0}
    - target: {fileID: 4935567236903406205, guid: 7f4ad8278d281a14987420738e3a620d,
        type: 3}
      propertyPath: m_LocalRotation.z
      value: 0
      objectReference: {fileID: 0}
    - target: {fileID: 4935567236903406205, guid: 7f4ad8278d281a14987420738e3a620d,
        type: 3}
      propertyPath: m_LocalRotation.w
      value: 0
      objectReference: {fileID: 0}
    - target: {fileID: 4935567236903406205, guid: 7f4ad8278d281a14987420738e3a620d,
        type: 3}
      propertyPath: m_RootOrder
      value: 3
      objectReference: {fileID: 0}
    - target: {fileID: 4935567236903406205, guid: 7f4ad8278d281a14987420738e3a620d,
        type: 3}
      propertyPath: m_LocalEulerAnglesHint.x
      value: 0
      objectReference: {fileID: 0}
    - target: {fileID: 4935567236903406205, guid: 7f4ad8278d281a14987420738e3a620d,
        type: 3}
      propertyPath: m_LocalEulerAnglesHint.y
      value: 180
      objectReference: {fileID: 0}
    - target: {fileID: 4935567236903406205, guid: 7f4ad8278d281a14987420738e3a620d,
        type: 3}
      propertyPath: m_LocalEulerAnglesHint.z
      value: 0
      objectReference: {fileID: 0}
    m_RemovedComponents: []
  m_SourcePrefab: {fileID: 100100000, guid: 7f4ad8278d281a14987420738e3a620d, type: 3}
--- !u!114 &244061728 stripped
MonoBehaviour:
  m_CorrespondingSourceObject: {fileID: 1458258661, guid: 7f4ad8278d281a14987420738e3a620d,
    type: 3}
  m_PrefabInstance: {fileID: 244061727}
  m_PrefabAsset: {fileID: 0}
  m_GameObject: {fileID: 0}
  m_Enabled: 1
  m_EditorHideFlags: 0
  m_Script: {fileID: 11500000, guid: 55230c20ba39f024399a576cb40c3bcd, type: 3}
  m_Name: 
  m_EditorClassIdentifier: 
--- !u!1 &534669902
GameObject:
  m_ObjectHideFlags: 0
  m_CorrespondingSourceObject: {fileID: 0}
  m_PrefabInstance: {fileID: 0}
  m_PrefabAsset: {fileID: 0}
  serializedVersion: 6
  m_Component:
  - component: {fileID: 534669905}
  - component: {fileID: 534669904}
  - component: {fileID: 534669903}
  - component: {fileID: 534669907}
  - component: {fileID: 534669906}
  m_Layer: 0
  m_Name: Main Camera
  m_TagString: MainCamera
  m_Icon: {fileID: 0}
  m_NavMeshLayer: 0
  m_StaticEditorFlags: 0
  m_IsActive: 1
--- !u!81 &534669903
AudioListener:
  m_ObjectHideFlags: 0
  m_CorrespondingSourceObject: {fileID: 0}
  m_PrefabInstance: {fileID: 0}
  m_PrefabAsset: {fileID: 0}
  m_GameObject: {fileID: 534669902}
  m_Enabled: 1
--- !u!20 &534669904
Camera:
  m_ObjectHideFlags: 0
  m_CorrespondingSourceObject: {fileID: 0}
  m_PrefabInstance: {fileID: 0}
  m_PrefabAsset: {fileID: 0}
  m_GameObject: {fileID: 534669902}
  m_Enabled: 1
  serializedVersion: 2
  m_ClearFlags: 1
  m_BackGroundColor: {r: 0.19215687, g: 0.3019608, b: 0.4745098, a: 0}
  m_projectionMatrixMode: 1
  m_SensorSize: {x: 36, y: 24}
  m_LensShift: {x: 0, y: 0}
  m_GateFitMode: 2
  m_FocalLength: 50
  m_NormalizedViewPortRect:
    serializedVersion: 2
    x: 0
    y: 0
    width: 1
    height: 1
  near clip plane: 0.3
  far clip plane: 1000
  field of view: 60
  orthographic: 0
  orthographic size: 5
  m_Depth: -1
  m_CullingMask:
    serializedVersion: 2
    m_Bits: 4294967295
  m_RenderingPath: -1
  m_TargetTexture: {fileID: 0}
  m_TargetDisplay: 0
  m_TargetEye: 3
  m_HDR: 1
  m_AllowMSAA: 1
  m_AllowDynamicResolution: 0
  m_ForceIntoRT: 0
  m_OcclusionCulling: 1
  m_StereoConvergence: 10
  m_StereoSeparation: 0.022
--- !u!4 &534669905
Transform:
  m_ObjectHideFlags: 0
  m_CorrespondingSourceObject: {fileID: 0}
  m_PrefabInstance: {fileID: 0}
  m_PrefabAsset: {fileID: 0}
  m_GameObject: {fileID: 534669902}
  m_LocalRotation: {x: -0.12091224, y: -0.7917363, z: 0.042497527, w: -0.597267}
  m_LocalPosition: {x: -24.78, y: 11.36, z: 0.04}
  m_LocalScale: {x: 1, y: 1, z: 1}
  m_Children: []
  m_Father: {fileID: 0}
  m_RootOrder: 0
  m_LocalEulerAnglesHint: {x: 12.224001, y: -253.172, z: 8.277}
--- !u!114 &534669906
MonoBehaviour:
  m_ObjectHideFlags: 0
  m_CorrespondingSourceObject: {fileID: 0}
  m_PrefabInstance: {fileID: 0}
  m_PrefabAsset: {fileID: 0}
  m_GameObject: {fileID: 534669902}
  m_Enabled: 1
  m_EditorHideFlags: 0
  m_Script: {fileID: 11500000, guid: 5338ef67174bb084b87f4bd093055686, type: 3}
  m_Name: 
  m_EditorClassIdentifier: 
  Enable: 1
  target: {fileID: 768817463}
  maxDistance: 40
  minDistance: 20
  maxHeightAngle: 80
  minHeightAngle: 30
  mouseSensitivity: 1
  scrollSensitivity: 1
  orbitDampening: 10
  scrollDampening: 6
  showCameraArea: 0
  showSnapPoints: 0
  snapPoints:
  - pivot: 45
    angle: 20
    orbitDampening: 1
  - pivot: 135
    angle: 20
    orbitDampening: 1
  - pivot: 225
    angle: 20
    orbitDampening: 1
  - pivot: 315
    angle: 20
    orbitDampening: 1
--- !u!114 &534669907
MonoBehaviour:
  m_ObjectHideFlags: 0
  m_CorrespondingSourceObject: {fileID: 0}
  m_PrefabInstance: {fileID: 0}
  m_PrefabAsset: {fileID: 0}
  m_GameObject: {fileID: 534669902}
  m_Enabled: 1
  m_EditorHideFlags: 0
  m_Script: {fileID: 11500000, guid: 7ba89cdba0807fc49a3ecda7f92da171, type: 3}
  m_Name: 
  m_EditorClassIdentifier: 
  inputType: 0
  updateInterval: 0.00001
--- !u!1 &768817463 stripped
GameObject:
  m_CorrespondingSourceObject: {fileID: 5757058300543009963, guid: f8f6618938ba67d49a3cde10b6e443b2,
    type: 3}
  m_PrefabInstance: {fileID: 1259094565}
  m_PrefabAsset: {fileID: 0}
--- !u!1001 &1259094565
PrefabInstance:
  m_ObjectHideFlags: 0
  serializedVersion: 2
  m_Modification:
    m_TransformParent: {fileID: 0}
    m_Modifications:
    - target: {fileID: 114431955106332060, guid: f8f6618938ba67d49a3cde10b6e443b2,
        type: 3}
      propertyPath: carObjects.Array.size
      value: 1
      objectReference: {fileID: 0}
    - target: {fileID: 114431955106332060, guid: f8f6618938ba67d49a3cde10b6e443b2,
        type: 3}
      propertyPath: carObjects.Array.data[0]
      value: 
      objectReference: {fileID: 244061728}
    - target: {fileID: 114431955106332060, guid: f8f6618938ba67d49a3cde10b6e443b2,
        type: 3}
      propertyPath: gizmo
      value: 
      objectReference: {fileID: 1557930134}
    - target: {fileID: 114431955106332060, guid: f8f6618938ba67d49a3cde10b6e443b2,
        type: 3}
      propertyPath: m_Enabled
      value: 1
      objectReference: {fileID: 0}
    - target: {fileID: 5757058300542916747, guid: f8f6618938ba67d49a3cde10b6e443b2,
        type: 3}
      propertyPath: m_LocalPosition.x
      value: -0
      objectReference: {fileID: 0}
    - target: {fileID: 5757058300542916747, guid: f8f6618938ba67d49a3cde10b6e443b2,
        type: 3}
      propertyPath: m_LocalPosition.y
      value: 0
      objectReference: {fileID: 0}
    - target: {fileID: 5757058300542916747, guid: f8f6618938ba67d49a3cde10b6e443b2,
        type: 3}
      propertyPath: m_LocalPosition.z
      value: 0
      objectReference: {fileID: 0}
    - target: {fileID: 5757058300542916747, guid: f8f6618938ba67d49a3cde10b6e443b2,
        type: 3}
      propertyPath: m_LocalRotation.x
      value: 0
      objectReference: {fileID: 0}
    - target: {fileID: 5757058300542916747, guid: f8f6618938ba67d49a3cde10b6e443b2,
        type: 3}
      propertyPath: m_LocalRotation.y
      value: -0
      objectReference: {fileID: 0}
    - target: {fileID: 5757058300542916747, guid: f8f6618938ba67d49a3cde10b6e443b2,
        type: 3}
      propertyPath: m_LocalRotation.z
      value: -0
      objectReference: {fileID: 0}
    - target: {fileID: 5757058300542916747, guid: f8f6618938ba67d49a3cde10b6e443b2,
        type: 3}
      propertyPath: m_LocalRotation.w
      value: 1
      objectReference: {fileID: 0}
    - target: {fileID: 5757058300542916747, guid: f8f6618938ba67d49a3cde10b6e443b2,
        type: 3}
      propertyPath: m_RootOrder
      value: 2
      objectReference: {fileID: 0}
    - target: {fileID: 5757058300542916747, guid: f8f6618938ba67d49a3cde10b6e443b2,
        type: 3}
      propertyPath: m_LocalEulerAnglesHint.x
      value: 0
      objectReference: {fileID: 0}
    - target: {fileID: 5757058300542916747, guid: f8f6618938ba67d49a3cde10b6e443b2,
        type: 3}
      propertyPath: m_LocalEulerAnglesHint.y
      value: 0
      objectReference: {fileID: 0}
    - target: {fileID: 5757058300542916747, guid: f8f6618938ba67d49a3cde10b6e443b2,
        type: 3}
      propertyPath: m_LocalEulerAnglesHint.z
      value: 0
      objectReference: {fileID: 0}
    - target: {fileID: 5757058300543009963, guid: f8f6618938ba67d49a3cde10b6e443b2,
        type: 3}
      propertyPath: m_Name
      value: 8-Gon
      objectReference: {fileID: 0}
    - target: {fileID: 5757058300543009963, guid: f8f6618938ba67d49a3cde10b6e443b2,
        type: 3}
      propertyPath: m_Layer
      value: 9
      objectReference: {fileID: 0}
    m_RemovedComponents: []
  m_SourcePrefab: {fileID: 100100000, guid: f8f6618938ba67d49a3cde10b6e443b2, type: 3}
--- !u!1 &1557930134 stripped
GameObject:
  m_CorrespondingSourceObject: {fileID: 4310597602685472460, guid: 8eab835744512c64485f5cc3aef89f0f,
    type: 3}
  m_PrefabInstance: {fileID: 4310597601136995930}
  m_PrefabAsset: {fileID: 0}
--- !u!1001 &4310597601136995930
PrefabInstance:
  m_ObjectHideFlags: 0
  serializedVersion: 2
  m_Modification:
    m_TransformParent: {fileID: 0}
    m_Modifications:
    - target: {fileID: 4310597602685472448, guid: 8eab835744512c64485f5cc3aef89f0f,
        type: 3}
      propertyPath: m_LocalPosition.x
      value: 11.69
      objectReference: {fileID: 0}
    - target: {fileID: 4310597602685472448, guid: 8eab835744512c64485f5cc3aef89f0f,
        type: 3}
      propertyPath: m_LocalPosition.y
      value: -0.40450096
      objectReference: {fileID: 0}
    - target: {fileID: 4310597602685472448, guid: 8eab835744512c64485f5cc3aef89f0f,
        type: 3}
      propertyPath: m_LocalPosition.z
      value: -2.53
      objectReference: {fileID: 0}
    - target: {fileID: 4310597602685472448, guid: 8eab835744512c64485f5cc3aef89f0f,
        type: 3}
      propertyPath: m_LocalRotation.x
      value: 0
      objectReference: {fileID: 0}
    - target: {fileID: 4310597602685472448, guid: 8eab835744512c64485f5cc3aef89f0f,
        type: 3}
      propertyPath: m_LocalRotation.y
      value: 0
      objectReference: {fileID: 0}
    - target: {fileID: 4310597602685472448, guid: 8eab835744512c64485f5cc3aef89f0f,
        type: 3}
      propertyPath: m_LocalRotation.z
      value: 0
      objectReference: {fileID: 0}
    - target: {fileID: 4310597602685472448, guid: 8eab835744512c64485f5cc3aef89f0f,
        type: 3}
      propertyPath: m_LocalRotation.w
      value: 1
      objectReference: {fileID: 0}
    - target: {fileID: 4310597602685472448, guid: 8eab835744512c64485f5cc3aef89f0f,
        type: 3}
      propertyPath: m_RootOrder
      value: 4
      objectReference: {fileID: 0}
    - target: {fileID: 4310597602685472448, guid: 8eab835744512c64485f5cc3aef89f0f,
        type: 3}
      propertyPath: m_LocalEulerAnglesHint.x
      value: 0
      objectReference: {fileID: 0}
    - target: {fileID: 4310597602685472448, guid: 8eab835744512c64485f5cc3aef89f0f,
        type: 3}
      propertyPath: m_LocalEulerAnglesHint.y
      value: 0
      objectReference: {fileID: 0}
    - target: {fileID: 4310597602685472448, guid: 8eab835744512c64485f5cc3aef89f0f,
        type: 3}
      propertyPath: m_LocalEulerAnglesHint.z
      value: 0
      objectReference: {fileID: 0}
    - target: {fileID: 4310597602685472450, guid: 8eab835744512c64485f5cc3aef89f0f,
        type: 3}
      propertyPath: m_Materials.Array.data[0]
      value: 
      objectReference: {fileID: 2100000, guid: 7fc5a9356e3db184b958c42f054f0fd9, type: 2}
    - target: {fileID: 4310597602685472460, guid: 8eab835744512c64485f5cc3aef89f0f,
        type: 3}
      propertyPath: m_Name
      value: Gizmo
      objectReference: {fileID: 0}
    - target: {fileID: 4310597602685472460, guid: 8eab835744512c64485f5cc3aef89f0f,
        type: 3}
      propertyPath: m_IsActive
      value: 0
      objectReference: {fileID: 0}
    m_RemovedComponents: []
  m_SourcePrefab: {fileID: 100100000, guid: 8eab835744512c64485f5cc3aef89f0f, type: 3}
